<?xml version="1.0" encoding="UTF-8" standalone="no"?>
<!-- Created with Inkscape (http://www.inkscape.org/) -->

<svg
   xmlns:dc="http://purl.org/dc/elements/1.1/"
   xmlns:cc="http://creativecommons.org/ns#"
   xmlns:rdf="http://www.w3.org/1999/02/22-rdf-syntax-ns#"
   xmlns:svg="http://www.w3.org/2000/svg"
   xmlns="http://www.w3.org/2000/svg"
   xmlns:xlink="http://www.w3.org/1999/xlink"
   xmlns:sodipodi="http://sodipodi.sourceforge.net/DTD/sodipodi-0.dtd"
   xmlns:inkscape="http://www.inkscape.org/namespaces/inkscape"
   width="18"
   height="18"
   id="svg2"
   version="1.1"
   inkscape:version="0.92.3 (2405546, 2018-03-11)"
   sodipodi:docname="three_dots.svg">
  <defs
     id="defs4">
    <inkscape:perspective
       sodipodi:type="inkscape:persp3d"
       inkscape:vp_x="0 : 12 : 1"
       inkscape:vp_y="0 : 1000 : 0"
       inkscape:vp_z="24 : 12 : 1"
       inkscape:persp3d-origin="12 : 8 : 1"
       id="perspective3289" />
    <inkscape:path-effect
       effect="skeletal"
       id="path-effect4392"
       is_visible="true"
       pattern="M 0,5 C 0,2.24 2.24,0 5,0 7.76,0 10,2.24 10,5 10,7.76 7.76,10 5,10 2.24,10 0,7.76 0,5 z"
       copytype="single_stretched"
       prop_scale="1"
       scale_y_rel="false"
       spacing="0"
       normal_offset="0"
       tang_offset="0"
       prop_units="false"
       vertical_pattern="false"
       fuse_tolerance="0" />
    <inkscape:path-effect
       effect="skeletal"
       id="path-effect4388"
       is_visible="true"
       pattern="M 0,5 C 0,2.24 2.24,0 5,0 7.76,0 10,2.24 10,5 10,7.76 7.76,10 5,10 2.24,10 0,7.76 0,5 z"
       copytype="single_stretched"
       prop_scale="1"
       scale_y_rel="false"
       spacing="0"
       normal_offset="0"
       tang_offset="0"
       prop_units="false"
       vertical_pattern="false"
       fuse_tolerance="0" />
    <inkscape:path-effect
       effect="skeletal"
       id="path-effect4384"
       is_visible="true"
       pattern="M 0,5 C 0,2.24 2.24,0 5,0 7.76,0 10,2.24 10,5 10,7.76 7.76,10 5,10 2.24,10 0,7.76 0,5 z"
       copytype="single_stretched"
       prop_scale="1"
       scale_y_rel="false"
       spacing="0"
       normal_offset="0"
       tang_offset="0"
       prop_units="false"
       vertical_pattern="false"
       fuse_tolerance="0" />
    <inkscape:path-effect
       effect="skeletal"
       id="path-effect4380"
       is_visible="true"
       pattern="M 0,5 C 0,2.24 2.24,0 5,0 7.76,0 10,2.24 10,5 10,7.76 7.76,10 5,10 2.24,10 0,7.76 0,5 z"
       copytype="single_stretched"
       prop_scale="1"
       scale_y_rel="false"
       spacing="0"
       normal_offset="0"
       tang_offset="0"
       prop_units="false"
       vertical_pattern="false"
       fuse_tolerance="0" />
    <inkscape:path-effect
       effect="skeletal"
       id="path-effect4376"
       is_visible="true"
       pattern="M 0,5 C 0,2.24 2.24,0 5,0 7.76,0 10,2.24 10,5 10,7.76 7.76,10 5,10 2.24,10 0,7.76 0,5 z"
       copytype="single_stretched"
       prop_scale="1"
       scale_y_rel="false"
       spacing="0"
       normal_offset="0"
       tang_offset="0"
       prop_units="false"
       vertical_pattern="false"
       fuse_tolerance="0" />
    <inkscape:path-effect
       effect="skeletal"
       id="path-effect4372"
       is_visible="true"
       pattern="M 0,5 C 0,2.24 2.24,0 5,0 7.76,0 10,2.24 10,5 10,7.76 7.76,10 5,10 2.24,10 0,7.76 0,5 z"
       copytype="single_stretched"
       prop_scale="1"
       scale_y_rel="false"
       spacing="0"
       normal_offset="0"
       tang_offset="0"
       prop_units="false"
       vertical_pattern="false"
       fuse_tolerance="0" />
    <inkscape:path-effect
       effect="skeletal"
       id="path-effect4368"
       is_visible="true"
       pattern="M 0,5 C 0,2.24 2.24,0 5,0 7.76,0 10,2.24 10,5 10,7.76 7.76,10 5,10 2.24,10 0,7.76 0,5 z"
       copytype="single_stretched"
       prop_scale="1"
       scale_y_rel="false"
       spacing="0"
       normal_offset="0"
       tang_offset="0"
       prop_units="false"
       vertical_pattern="false"
       fuse_tolerance="0" />
    <inkscape:path-effect
       effect="skeletal"
       id="path-effect4322"
       is_visible="true"
       pattern="M 0,5 C 0,2.24 2.24,0 5,0 7.76,0 10,2.24 10,5 10,7.76 7.76,10 5,10 2.24,10 0,7.76 0,5 z"
       copytype="single_stretched"
       prop_scale="1"
       scale_y_rel="false"
       spacing="0"
       normal_offset="0"
       tang_offset="0"
       prop_units="false"
       vertical_pattern="false"
       fuse_tolerance="0" />
    <inkscape:path-effect
       effect="skeletal"
       id="path-effect4318"
       is_visible="true"
       pattern="M 0,5 C 0,2.24 2.24,0 5,0 7.76,0 10,2.24 10,5 10,7.76 7.76,10 5,10 2.24,10 0,7.76 0,5 z"
       copytype="single_stretched"
       prop_scale="1"
       scale_y_rel="false"
       spacing="0"
       normal_offset="0"
       tang_offset="0"
       prop_units="false"
       vertical_pattern="false"
       fuse_tolerance="0" />
    <inkscape:path-effect
       effect="skeletal"
       id="path-effect4290"
       is_visible="true"
       pattern="M 0,5 C 0,2.24 2.24,0 5,0 7.76,0 10,2.24 10,5 10,7.76 7.76,10 5,10 2.24,10 0,7.76 0,5 z"
       copytype="single_stretched"
       prop_scale="1"
       scale_y_rel="false"
       spacing="0"
       normal_offset="0"
       tang_offset="0"
       prop_units="false"
       vertical_pattern="false"
       fuse_tolerance="0" />
    <inkscape:path-effect
       effect="skeletal"
       id="path-effect4286"
       is_visible="true"
       pattern="M 0,5 C 0,2.24 2.24,0 5,0 7.76,0 10,2.24 10,5 10,7.76 7.76,10 5,10 2.24,10 0,7.76 0,5 z"
       copytype="single_stretched"
       prop_scale="1"
       scale_y_rel="false"
       spacing="0"
       normal_offset="0"
       tang_offset="0"
       prop_units="false"
       vertical_pattern="false"
       fuse_tolerance="0" />
    <inkscape:path-effect
       effect="skeletal"
       id="path-effect4254"
       is_visible="true"
       pattern="m 58.392857,27.678571 c 0,-2.76 2.24,-5 5,-5 2.76,0 5,2.24 5,5 0,2.76 -2.24,5 -5,5 -2.76,0 -5,-2.24 -5,-5 z"
       copytype="single_stretched"
       prop_scale="1"
       scale_y_rel="false"
       spacing="0"
       normal_offset="0"
       tang_offset="0"
       prop_units="false"
       vertical_pattern="false"
       fuse_tolerance="0" />
    <inkscape:path-effect
       effect="skeletal"
       id="path-effect4234"
       is_visible="true"
       pattern="M 0,5 C 0,2.24 2.24,0 5,0 7.76,0 10,2.24 10,5 10,7.76 7.76,10 5,10 2.24,10 0,7.76 0,5 z"
       copytype="single_stretched"
       prop_scale="1"
       scale_y_rel="false"
       spacing="0"
       normal_offset="0"
       tang_offset="0"
       prop_units="false"
       vertical_pattern="false"
       fuse_tolerance="0" />
    <inkscape:path-effect
       effect="skeletal"
       id="path-effect4230"
       is_visible="true"
       pattern="M 0,5 C 0,2.24 2.24,0 5,0 7.76,0 10,2.24 10,5 10,7.76 7.76,10 5,10 2.24,10 0,7.76 0,5 z"
       copytype="single_stretched"
       prop_scale="1"
       scale_y_rel="false"
       spacing="0"
       normal_offset="0"
       tang_offset="0"
       prop_units="false"
       vertical_pattern="false"
       fuse_tolerance="0" />
    <inkscape:path-effect
       effect="skeletal"
       id="path-effect4226"
       is_visible="true"
       pattern="m -5.7142857,1035.5051 c 0,-2.76 2.24,-5 4.99999998,-5 2.76000002,0 5.00000002,2.24 5.00000002,5 0,2.76 -2.24,5 -5.00000002,5 -2.75999998,0 -4.99999998,-2.24 -4.99999998,-5 z"
       copytype="single_stretched"
       prop_scale="1"
       scale_y_rel="false"
       spacing="0"
       normal_offset="0"
       tang_offset="0"
       prop_units="false"
       vertical_pattern="false"
       fuse_tolerance="0" />
    <inkscape:path-effect
       effect="skeletal"
       id="path-effect4222"
       is_visible="true"
       pattern="m -11.428571,1036.9336 c 0,-2.76 2.2399996,-5 4.9999996,-5 2.76,0 5,2.24 5,5 0,2.76 -2.24,5 -5,5 -2.76,0 -4.9999996,-2.24 -4.9999996,-5 z"
       copytype="single_stretched"
       prop_scale="1"
       scale_y_rel="false"
       spacing="0"
       normal_offset="0"
       tang_offset="0"
       prop_units="false"
       vertical_pattern="false"
       fuse_tolerance="0" />
    <inkscape:path-effect
       effect="skeletal"
       id="path-effect3426"
       is_visible="true"
       pattern="M 0,5 C 0,2.24 2.24,0 5,0 7.76,0 10,2.24 10,5 10,7.76 7.76,10 5,10 2.24,10 0,7.76 0,5 z"
       copytype="single_stretched"
       prop_scale="1"
       scale_y_rel="false"
       spacing="0"
       normal_offset="0"
       tang_offset="0"
       prop_units="false"
       vertical_pattern="false"
       fuse_tolerance="0" />
    <inkscape:path-effect
       effect="skeletal"
       id="path-effect3412"
       is_visible="true"
       pattern="m -70.609153,1018.2505 c 0,-2.76 2.24,-5 5,-5 2.76,0 5,2.24 5,5 0,2.76 -2.24,5 -5,5 -2.76,0 -5,-2.24 -5,-5 z"
       copytype="single_stretched"
       prop_scale="1"
       scale_y_rel="false"
       spacing="0"
       normal_offset="0"
       tang_offset="0"
       prop_units="false"
       vertical_pattern="false"
       fuse_tolerance="0" />
    <inkscape:path-effect
       effect="skeletal"
       id="path-effect3404"
       is_visible="true"
       pattern="m -75.966296,1018.6076 c 0,-2.76 2.24,-5 5,-5 2.76,0 5,2.24 5,5 0,2.76 -2.24,5 -5,5 -2.76,0 -5,-2.24 -5,-5 z"
       copytype="single_stretched"
       prop_scale="1"
       scale_y_rel="false"
       spacing="0"
       normal_offset="0"
       tang_offset="0"
       prop_units="false"
       vertical_pattern="false"
       fuse_tolerance="0" />
    <inkscape:path-effect
       effect="skeletal"
       id="path-effect3392"
       is_visible="true"
       pattern="m -72.037724,1014.6791 c 0,-2.76 2.24,-5 5,-5 2.76,0 5,2.24 5,5 0,2.76 -2.24,5 -5,5 -2.76,0 -5,-2.24 -5,-5 z"
       copytype="single_stretched"
       prop_scale="1"
       scale_y_rel="false"
       spacing="0"
       normal_offset="0"
       tang_offset="0"
       prop_units="false"
       vertical_pattern="false"
       fuse_tolerance="0" />
    <inkscape:path-effect
       effect="skeletal"
       id="path-effect3388"
       is_visible="true"
       pattern="m -60.609153,1022.2505 c 0,-2.76 2.24,-5 5,-5 2.76,0 5,2.24 5,5 0,2.76 -2.24,5 -5,5 -2.76,0 -5,-2.24 -5,-5 z"
       copytype="single_stretched"
       prop_scale="1"
       scale_y_rel="false"
       spacing="0"
       normal_offset="0"
       tang_offset="0"
       prop_units="false"
       vertical_pattern="false"
       fuse_tolerance="0" />
    <inkscape:path-effect
       effect="skeletal"
       id="path-effect3380"
       is_visible="true"
       pattern="m -60.609153,1022.2505 c 0,-2.76 2.24,-5 5,-5 2.76,0 5,2.24 5,5 0,2.76 -2.24,5 -5,5 -2.76,0 -5,-2.24 -5,-5 z"
       copytype="single_stretched"
       prop_scale="1"
       scale_y_rel="false"
       spacing="0"
       normal_offset="0"
       tang_offset="0"
       prop_units="false"
       vertical_pattern="false"
       fuse_tolerance="0" />
    <inkscape:path-effect
       effect="skeletal"
       id="path-effect3376"
       is_visible="true"
       pattern="m -70.609153,1028.2505 c 0,-2.76 2.24,-5 5,-5 2.76,0 5,2.24 5,5 0,2.76 -2.24,5 -5,5 -2.76,0 -5,-2.24 -5,-5 z"
       copytype="single_stretched"
       prop_scale="1"
       scale_y_rel="false"
       spacing="0"
       normal_offset="0"
       tang_offset="0"
       prop_units="false"
       vertical_pattern="false"
       fuse_tolerance="0" />
    <inkscape:path-effect
       effect="skeletal"
       id="path-effect3372"
       is_visible="true"
       pattern="m -60.609153,1022.2505 c 0,-2.76 2.24,-5 5,-5 2.76,0 5,2.24 5,5 0,2.76 -2.24,5 -5,5 -2.76,0 -5,-2.24 -5,-5 z"
       copytype="single_stretched"
       prop_scale="1"
       scale_y_rel="false"
       spacing="0"
       normal_offset="0"
       tang_offset="0"
       prop_units="false"
       vertical_pattern="false"
       fuse_tolerance="0" />
    <inkscape:path-effect
       effect="skeletal"
       id="path-effect3364"
       is_visible="true"
       pattern="m -60.609153,1022.2505 c 0,-2.76 2.24,-5 5,-5 2.76,0 5,2.24 5,5 0,2.76 -2.24,5 -5,5 -2.76,0 -5,-2.24 -5,-5 z"
       copytype="single_stretched"
       prop_scale="1"
       scale_y_rel="false"
       spacing="0"
       normal_offset="0"
       tang_offset="0"
       prop_units="false"
       vertical_pattern="false"
       fuse_tolerance="0" />
    <inkscape:path-effect
       effect="skeletal"
       id="path-effect3336"
       is_visible="true"
       pattern="m -54.609153,1024.2505 c 0,-2.76 2.24,-5 5,-5 2.76,0 5,2.24 5,5 0,2.76 -2.24,5 -5,5 -2.76,0 -5,-2.24 -5,-5 z"
       copytype="single_stretched"
       prop_scale="1"
       scale_y_rel="false"
       spacing="0"
       normal_offset="0"
       tang_offset="0"
       prop_units="false"
       vertical_pattern="false"
       fuse_tolerance="0" />
    <inkscape:path-effect
       effect="skeletal"
       id="path-effect3040"
       is_visible="true"
       pattern="M 0,5 C 0,2.24 2.24,0 5,0 7.76,0 10,2.24 10,5 10,7.76 7.76,10 5,10 2.24,10 0,7.76 0,5 z"
       copytype="single_stretched"
       prop_scale="1"
       scale_y_rel="false"
       spacing="0"
       normal_offset="0"
       tang_offset="0"
       prop_units="false"
       vertical_pattern="false"
       fuse_tolerance="0" />
    <inkscape:path-effect
       effect="skeletal"
       id="path-effect3036"
       is_visible="true"
       pattern="M 0,5 C 0,2.24 2.24,0 5,0 7.76,0 10,2.24 10,5 10,7.76 7.76,10 5,10 2.24,10 0,7.76 0,5 z"
       copytype="single_stretched"
       prop_scale="1"
       scale_y_rel="false"
       spacing="0"
       normal_offset="0"
       tang_offset="0"
       prop_units="false"
       vertical_pattern="false"
       fuse_tolerance="0" />
    <inkscape:path-effect
       effect="skeletal"
       id="path-effect3032"
       is_visible="true"
       pattern="M 0,5 C 0,2.24 2.24,0 5,0 7.76,0 10,2.24 10,5 10,7.76 7.76,10 5,10 2.24,10 0,7.76 0,5 z"
       copytype="single_stretched"
       prop_scale="1"
       scale_y_rel="false"
       spacing="0"
       normal_offset="0"
       tang_offset="0"
       prop_units="false"
       vertical_pattern="false"
       fuse_tolerance="0" />
    <inkscape:path-effect
       effect="skeletal"
       id="path-effect3028"
       is_visible="true"
       pattern="M 0,5 C 0,2.24 2.24,0 5,0 7.76,0 10,2.24 10,5 10,7.76 7.76,10 5,10 2.24,10 0,7.76 0,5 z"
       copytype="single_stretched"
       prop_scale="1"
       scale_y_rel="false"
       spacing="0"
       normal_offset="0"
       tang_offset="0"
       prop_units="false"
       vertical_pattern="false"
       fuse_tolerance="0" />
    <inkscape:path-effect
       effect="skeletal"
       id="path-effect3024"
       is_visible="true"
       pattern="M 0,5 C 0,2.24 2.24,0 5,0 7.76,0 10,2.24 10,5 10,7.76 7.76,10 5,10 2.24,10 0,7.76 0,5 z"
       copytype="single_stretched"
       prop_scale="1"
       scale_y_rel="false"
       spacing="0"
       normal_offset="0"
       tang_offset="0"
       prop_units="false"
       vertical_pattern="false"
       fuse_tolerance="0" />
  </defs>
  <sodipodi:namedview
     id="base"
     pagecolor="#ffffff"
     bordercolor="#666666"
     borderopacity="1.0"
     inkscape:pageopacity="0.0"
     inkscape:pageshadow="2"
     inkscape:zoom="22.627418"
     inkscape:cx="4.4443828"
     inkscape:cy="9.1675215"
     inkscape:document-units="px"
     inkscape:current-layer="layer1"
     showgrid="false"
     inkscape:window-width="1305"
     inkscape:window-height="713"
     inkscape:window-x="61"
     inkscape:window-y="27"
     inkscape:window-maximized="1" />
  <metadata
     id="metadata7">
    <rdf:RDF>
      <cc:Work
         rdf:about="">
        <dc:format>image/svg+xml</dc:format>
        <dc:type
           rdf:resource="http://purl.org/dc/dcmitype/StillImage" />
        <dc:title />
      </cc:Work>
    </rdf:RDF>
  </metadata>
  <g
     inkscape:label="Capa 1"
     inkscape:groupmode="layer"
     id="layer1"
     transform="translate(0,-1034.3622)">
    <image
       y="472.539"
       x="-808.20099"
       id="image4282"
       xlink:href="data:image/png;base64,iVBORw0KGgoAAAANSUhEUgAAAgAAAAIACAYAAAD0eNT6AAAABHNCSVQICAgIfAhkiAAAIABJREFU eJzt3WuUFGWe5/F/ZhYUVVyKiyAFCEp7wQu2rbZy8dKiCKIClaXd7Xb32TM9zsyqa69vevqcnTMz OtOz82K3+8yO3fScuZyZ7aN7Tm9bVVzURmnBK4qIF1AERUG5g2BBFVRRVZm5LzTtIsnMeCLjieeJ iOf7Occz00VkxJ+sJH//eOKJJ1KFQqEgAADAKWnbBQAAAPNoAAAAcBANAAAADqqzXQBgWy6XExGR TCZjuZJkKb6vIry3QBQxAgAAgINS3AUAAIB7GAEAAMBBzAFATSpd31X5+WAmX1vpOnSlOQDljuu1 j2rbDj6O6r69tvPz9670PlY6tt/jl25T7b33836lUikpHagsV28+nz9ju0rb+vndlhPk91duW5Xf TdCagVKMAKAmQb54bL3Wj0pfyKU/z+Vyytt6/byW13u9H6rvV7ljBa3fz7Gq/bxcqJf7PVS6mllu Wz/HV91O9Th+jlXcNqzfBdzGCACMikPj4HVWncvlyu5P57a11FD8mVcoVDr7DHp8lfdY53tbjteZ da3HD/J6lfe70vZ+R1EAPxgBgDZ+zoCi8tpqVL/IVbZV/TO/NZT+TPetd7WEvO79el2eUPl9l24T 9O/l57MRZL9AmBgBQGClZzKlZ6FeQ6E2Xlsr01/Qqn8Hr2vufl5by/H9MnX26mduQ1jHKrcdZ++I AkYAULMgZ022XguYxGcPUcYIALTI5/Nlf65ypmPrtXGgGiBhLecRVoDZDkaTk0lt/12BShgBgBbF ACp+2fn50rP12lpUm5EdhkoNjtd2QeZQJEnx91X6d1R9X2s5lsp2QBTQACCQdLr2j5Ct16rymlyo Ols8iEq3wFWa66A6W15VpdsDgwaozv2qNH2l26i8r9UE+WwAUcElAASSSqWUtiv3hWj6taqT5AZP 0tK94IsqrxqqHctrkplKrV7Hr/WSQ1j7LVK5BVL1fS3+uZ/3xcRnA9CFEQBoE+TWKluvVd1ntWOp bquzhmqrww3mt3nwe/xahLHfTCZTsSlU/XyoHt/PZ8PvPgCTeBgQ4IhyZ7QA3MUIAAAADqIBAADA QTQAAAA4iDkAAAA4iBEAAAAcRAMAAICDaAAAAHAQDQAAAA6iAQAAwEE0AAAAOIgGAAAAB9EAAADg IBoAAAAcRAMAAICDaAAAAHAQDQAAAA6iAQAAwEE0AAAAOIgGAAAAB9EAAADgIBoAAAAcRAMAAICD aAAAAHAQDQAAAA6iAQAAwEE0AAAAOIgGAAAAB9EAAADgIBoAAAAcVGe7AACAPidPHZUjXR/L5yd2 S1fvYentOyKn+k9KLt8r+XxeMpk6yaQbpbG+SRqHjpWmxkkyevhUGTfyXMmkh9ouHwbRAABAjA3k Tsm+o5tlz9FNsvezLdIzcKSm/aRSGTlrxNdk8rgr5Jxx35QxI87RXCmiJlUoFAq2iwAA+HO0+xPZ vu9Z2XVovfTnerTvf0zjNDm/+SY5f+KNMqSuQfv+YR8NAADEyMFj22TzrjbZ37nFyPGGZBpkxuSF cvHkRTJs6Egjx4QZNAAAEANdPQfljR2/lt1HN1k5/pBMo3x9WqvMmLxQ0umMlRqgFw0AAERYvpCX rbuflHc+eUJy+T7b5ciYxmkyd8Z9MnbkubZLQUA0AAAQUSdPHZUX339UDh1733Ypp0mlMnLVef9J Lp6ySFKplO1yUCMaAACIoEPHPpTn3/1f0jtwzHYpFZ171myZe/F93D4YUzQAABAxuz97Q17Y+r8l X+i3XYqn8aMukHmX/UTqh4ywXQp8ogEAgAjZeegVeWnrL0VSedulKBvTOE3mf/0vZNjQUbZLgQ80 AAAQETsPvSIvvf8LEYnf13LT8HNkweV/SRMQIzwLAAAiIM7hLyJy7MRueWbz30pv33HbpUARDQAA WBb38C/6qgnopwmIAxoAALAoKeFfdOzEbnnmHZqAOKABAABLkhb+RTQB8UADAAAWJDX8i2gCoo8G AAAMS3r4F9EERBsNAAAY5Er4F9EERBcNAAAY4lr4F9EERBMNAAAY4Gr4F9EERA8NAACEzPXwL6IJ iBYaAAAIEeF/OpqA6KABAICQEP7l0QREAw0AAISA8K+OJsA+GgAA0IzwV0MTYBcNAABoRPj7QxNg Dw0AAGhC+NeGJsAOGgAA0IDwD4YmwDwaAAAIiPDXgybALBoAAAiA8NeLJsAcGgAAqBHhHw6aADNo AACgBoR/uGgCwkcDAAA+Ef5m0ASEiwYAAHwg/M2iCQgPDQAAKCL87aAJCAcNAAAoIPztognQjwYA ADwQ/tFAE6AXDQAAVEH4RwtNgD6pQqHApxoAykhG+KekoW6sNNSPknQqLQP5Pjlx6oj0507aLiyQ puHnyIKv/6UMGzLKdimxRQMAAGXEOfxHDpso502YI81jLpezRk2XTHroGducPPW5HDq2TXYfeUM+ /Wyj5PJ9FioNhiYgGBoAACgR1/AfN+I8ueK878ikMV+XVCql/LpT/d3y/t5nZOueVTKQ6w2xQv1o AmpHAwAAg8Qx/DPpoXLV9B/Ihc03Szpd+9Sunr5OWf/Bv8jeI5s0Vhc+moDa0AAAwJfiGP7D68fL vMv+XMaMOEfL/gqFgry3e5W8ufP/atmfKTQB/tEAAIDEM/xHNTTLrV//K2msH6N93zsOvCDrt/9K +37DRBPgD7cBAnBeHMN/2JBRcsvl/z2U8BcROX/ijXLV9O+Hsu+wcIugPzQAAJwWx/AXEbl+xoMy Ytj4UI9x6Tl3yNSzvhnqMXSjCVBHAwDAWXEN/wuab5bmsTONHOva8++VIZlGI8fShSZADQ0AACfF Nfwz6aFyxbRvGzteQ32TzJy61NjxdKEJ8EYDAMA5cQ1/EZGvnX2TNNQ3GT3mRZPmS11mmNFj6kAT UB0NAACnxDn8RUQunHST8WMOqWuQc8+abfy4OtAEVEYDAMAZcQ//4UPPkrEjzrVy7Knj4zUZcDCa gPJoAAA4Ie7hLyIyYczF9o7dNEPivGoMTcCZaAAAJF4Swl9EZEyjntX+ajG0rlEah4yzdnwdaAJO RwMAINGSEv4iIo31dgN4REO8GwARmoDBaAAAJNaeI28mJvxFROrSdmfiZ2J4J0A5NAFfoAEAkFjj R11obdJcOPJWj14o5KweX6djJ3bL7zf/vfQNnLRdijU0AAASq37ICJl/+V/I2BHn2S5Fi1MDXVaP 39ffbfX4uh3t3inPv/czyeUHbJdiBQ0AgERLUhPQ1XPQ2rELhYJ0nbJ3/LAc6HxPXv/wP2yXYQUN AIDES0oT8FnXDmvHPt6zTwZyvdaOH6YPD/xePj74su0yjKMBAOCEJDQBh459IP2WQnjf51usHNeU DR/+m3T3fma7DKNoAAA4I+5NQL7QL7s/e8PKsXcefMXKcU3pz/XIhg/+zXYZRtEAAHBK3JuAbXuf MX7Mz45/LJ91fWj8uKbt/fwt2f3ZJttlGEMDAMA5cW4CPuv6UPYeecvoMd/55LdGj2fTpo8el3zB 7u2WptAAAHBSnJuA1z/6PzKQO2XkWJ8e3ih7j5ptOGw63rtPdh1ab7sMI2gAADgrrk1AV88B2fjR r0M/zslTR+W1D/8l9ONEzXu7V9kuwQgaAABOi2sT8OH+5+T9PU+Htv++gZOy9t3/6eRyuZ+f+EQO dm6zXUboaAAAxMaqVavk0V88qn2/cW0CXt/xa3l/72rt++3t65Lntvy9HO3eqX3fcfHRwRdslxC6 zMMPP/yw7SIAwMuqVavkxz/+sWx4bYPkcjmZNWuW1v3XZYbKtPGzZP/nW6Snr1PrvsOSSonsO/q2 9PYfl+Yxl0o6lQm8z6Pdn8jvt/wP+fzEpxoqjK/u3sNy8ZTbJZ1K7nkyDQCAyCuGfz7/xezsjRs3 0gQMcqTrI/nk8AZpapwsIxsm1LSP/lyvbPm0Q17ZtkxOOTjsXyqX75fm0ZfKiBrfzzhIFQqFZDwn E0AilYb/YPfff7889NBD2o95qr9b1mz+u1gOgU8cfanMmLRQJo+9QjKZIZ7bnzh1RD468IJs27va yev91Vx2zhK5cvo9tssIDQ0AgMiqFv5FNAHl1WWGycTRl8pZI78moxqaZdiQUZJKpWUgf0pO9B6V Yyd3y8HObXKke6ekUrarjaYJoy6Shd94xHYZoaEBABBJKuFfRBOAMGTSQ+Weuf8h6XQy5wEk828F INb8hL+IyLJly+Qf/uEftNcR17sDoEcu3ycnTh22XUZoaAAARIrf8C+iCUAYunoP2S4hNDQAACKj 1vAvogmAbid6j9guITQ0AAAiIWj4F9EEQKe+gW7bJYSGBgCAdbrCv4gmALr0G3rokg00AACs0h3+ RTQB0KGQz9kuITQ0AACsCSv8i2gCEFQmU2e7hNDQAACwIuzwL6IJQBBDMsNslxAaGgAAxpkK/yKa ANSqfsgo2yWEhgYAgFGmw7+IJgC1GF4/znYJoaEBAGCMrfAvogmAXyMbJtouITQ0AACMsB3+RTQB UDW0boQ01o+xXUZoaAAAhC4q4V9EEwAV40Z+zXYJoaIBABCqqIV/EU0AvEwcfbHtEkJFAwAgNFEN /yKaAFQzaczltksIFQ0AgFBEPfyLaAJQTkPduMT/7mgAAGgXl/AvoglAqenNcyWVStkuI1Q0AAC0 ilv4F9EEoKhQEDn/7G/ZLiN0NAAAtIlr+BfRBEBEpHnM5dI0fJLtMkJHAwBAi7iHfxFNAC6futR2 CUbQAAAILCnhX0QT4K6Joy+ViWMusV2GETQAAAJJWvgX0QS4KCVXTf++7SK0yOVyntsoNQC5XE7p PwBuSWr4F9EEuOXC5ltl3Mh4/k5qyWPPBoBgB1BO0sO/iCbADY1DxstV079ruwxlhUIh8Al4qlAo FKptUNxxJpOp6QAAkseV8B/s/vvvl4ceekj7fk/1d8uazX8nR7t3at831KRSGVl4xcMyftQFtkvx VC3s/eY0cwAA+OJi+IswEpBkV0//QSzCv5xUKiWZTKamk3QaAADKXA3/IpqA5Llo0gK5eMpC22Uo Kw36IJcCaAAAKHE9/ItoApLj3HGz5Zvn/2fbZfhWPOMvd9bvpxnwnANQ3KFqUQCSh/A/E3MC4m3q uGvl+kselEy6znYp2pRmtVcmMwIAoCrCvzxGAuIrSeEf5E4A5bsAVDACACQL4e+NkYB4SUL467oT gNsAAZRF+KujCYiHpIZ/rfnMJQAAZyD8/eFyQPQlIfwrCf0SACMAgBsI/9oxEhBNSQx/lcD3ym1f cwBoAoBkI/yDowmIliSGfzm1XBpgEiAAESH8daIJiAZXwr+U6sg9cwAAEP6aMSfAPlfDX0T9ZFxp ISAAyUX4h4eRADtcDP9QLgEASC7CP3w0AWa5Ev6FQsHz3622BkDnIwgB2Ef4m0MTYIYL4W/8ccBe EwFruf8QgD2Ev1nMCQifC+FfTpDHAfu+C2DwQfw+eACAfYS/PYwEhMO18I/UUsAsFgTEA+FvH02A Xq6Ff6kgzQC3AQKOIPyjgcsB+rge/iLy1fB/LSfgNACAAwj/aKEJCI7w/0KQxwHTAAAJl7TwT6VS tkvQgiagdq6Hf7XQ9zMiUNNSwJlMRusjCQGEI87h39jYKN/61rdk7tw5cskll8qUKVNk1KhRkkql 5MSJbtm3b79s27ZNNmzYIOueXyeHDx22XXJNmBPgD+GvL3uV1gHQ8dQhAGbFNfynTJkif/Zf/kwW 37lYGhoalF6Tyw3I2rXr5J/+6Z9ky5YtIVeoH02AGtfDX0TvOgC+VgLkrB+IhziGf11dnfzov/1I /viHP5QhQ4bWtI9CoSArV66Un/70p3Ls2DHNFYaLJqA6wv90Rh4HDCBe4hj+zc3N8stf/lIuu+wy Lfs7cOCAPPDAA7EbDaAJKI/w9xbqswDK3evP/f9AtMQx/M877zz59a9/LWeffbbW/fb09Mh9990n 69ev17rfsNEEnI7w9081m33PAai0EiBNAGBXXMP/sccek/Hjx4ey/56eHvnBD34gmzdvDmX/YaEJ +ALhX7tcLhe8AfAKeZoAwD7Cv7JDhw7KHXfcKZ2dnaEeRzfXmwDC359aLgFkHn744YerbVDsDyrt KJ1Of7VNOs2yAoBphH91w4ePkMmTJ8nq1c+EfiydNm7cKLlcTmbNmqV1v3WZoTJt/CzZ//kW6emL ZlNE+HsrPg64UChIpfN4r0wmsYEYI/zVLFp0u1x11VXGjqeLi4sFEf7VFRcAKvdvfvAiQCoj8jQA QEwR/v7cd999xo+pg0tNAOHvX5DHASs3AJXuOaxl/WEAwRD+/l133XUyadIkK8cOyoUmgPBXUxr0 hUKh5ucBeDYApbP+S/+rVBSAcBD+tUmn07Jg4QJrxw8qyU0A4e9PtWF+P82A0giA50xCwh8wgvAP 5tprrrVdQiBJbAII/2CMPA64dHJBkIMC8I/wD27GjBm2SwgsSU0A4R8cjwMGEo7w12PixImJuF05 CU0A4V87XY8Djv+/BCDhCH990um0jBw10nYZWsS5CSD8axc09AfT0gDUOvwAoDrCX798Lj7vpZc4 NgGEv35cAgAShvDXL5fLyYkTJ2yXoVWcmgDCP7hqZ/qV7tKrREsDwGRAQC/CPxwHDhyI1XuqKg5N AOGvl47J+IwAABFD+Idn69attksITZSbAMI/fLU0A75WAiw3tMD1f0Afwj9cr776qu0SQhXFJoDw 10slc7XeBUDAA+Ej/MOVy+Xk2WeftV1G6KLUBBD+0ebZAHgt91v8GU0CUDvCP3zr1q2TQ4cO2S7D iCg0AdPGzyL8I87XSoAA9CP8w1coFGTZsmW2yzDKZhMwbfwsuX4G4R8GnZPumQQIWET4m9He3i7v vvuu7TKMs9EEFMM/neakMepShUKhUG2D4tB+6VB/6VMCS38GoDrC34w9e/bIkiVLpKury3Yp1tx/ //3y0EMPad/vqf5uWbP57+Ro904RIfzjRrkBEPki4AeHfT6fl8EvpwEA1BD+ZnR3d8s999wj27dv t12KdWE3ASMbzib8DfAz367aibuIQgOgekDCH1BD+Jtx4kS33Hvvn8imTZtslxIZYTUBfQMnpS5d T/gbYLwB8Doo4Q+oIfzNIPwrC6sJQPwoNwAAgiH8zSD8vdEEQETE1z0auVzujMl/nP0D3gh/Mwh/ NcVbImkC4kvHqLzySoCVDsZSwEB1hL8ZhL8/Yd0iiPB5Za5qJnuOAKjuiNEA4EyEvxmEf20YCYgf r9V5i3+uksm+VgIs3RmPAQYqI/zNIPyDYSQgniplbyhPAwSgjvA3g/DXgybATTQAgGaEvxmEv140 Ae6hAQA0IvzNIPzDQRMQH9Um5qvyXAegdLnfijtKpSSdpp+Auwh/Mwj/8LFOQLRVmgjoNUGwlGdi q4Y64Q+XEf5mEP5mLFu2TJ5++mnbZaACr3BXnQiotBBQ6XrCtRwISCrC3wzC35xFi26TBQtutV0G qiiXvX7zmKWAgQAIfzMIf3MWLbpNfvazn0km42uhWFgQ9KTcVwPgNbmA0QC4hPA3g/A3h/CPB11P 6FX6LbPUL3A6wt8Mwt8cwt892pYCBlxB+JtB+JtD+MdHMZMrneH7WQpY+bfN8D5A+JtC+JtD+CdL JpNRPnHn3j1AEeFvBuFvDuHvNhoAQAHhbwbhbw7hD88GIJVKiQhzAeAuwt8Mwt8cwj/+jCwF7Gdn zBNA0hD+ZhD+5hD+8afrNkAuAQAVEP5mEP7mEP7JoGspYFYCBMog/M0g/M0h/FGKEQCgBOFvBuFv DuGPcpQ/DaXXHIpDDMXHBXP9H0lA+JtB+JtD+CeLznl5SiMA1Q7IFQQkBeFvBuFvDuGPanzdBTB4 haHBnYXX0oRA1BH+ZhD+5hD+bvKTx8pzAAh3JBXhbwbhbw7h765iVqtcKmASIJxG+JtB+JtD+EMV DQCcRfibQfibQ/jDD193AZS7DMASwYgjwt8Mwt8cwt8NOjNXaSEgXcsOAlFA+JtB+JtD+LvD+G2A upYdBGwj/M0g/M0h/FEqk8ko5TJLAcMZhL8ZhL85hD+CYBIgnED4m0H4m0P4I6gzPjmliwjwOGDE HeFvBuFvDuGPatmsmsWMACDRCH8zCH9zCH94nZirnrjTACCxCH8zCH9zCH8MDvdUKnXa2X65Jfqr OeNTVDp0wLA+4ojwN4PwN4fwx2CVsnnwM3u8eI4A5HI5FvtBrBD+ZhD+5hD+CAOXAJAohL8ZhL85 hD/CQgOAxCD8zSD8zSH84ZefEXvPhYC4DRBxQPibQfibQ/ijEpXb9VXymBEAxB7hbwbhbw7hjyBU T8b5dCHWCH8zCH9zCH940XW3Hs8CQGwR/mYQ/uYQ/vCSy+WUAl9lO+VPWek1huKO8/m8FAoFrv/D KMLfDMLfHMIfqkrnAJT7MxVKcwCq7ZABBJhG+JtB+JtD+KMWuVzutAz2u2aPr7sABq8wVG7JQUYB EDbC3wzC3xzCH7Uw+jAgwh22Ef5mEP7mEP6oVbWlgFVxGyBigfA3g/A3h/BHEJVGAPxcBuCTh8gj /LUrd9kvRfibQ/ijVpUm5A/+M9XL8sojADq6DcAvwl+7goikSv87caK7QPibQfhDl6DrASitA6AS 8swRgG6EfyiKDcBX/+5PnOhO3XvvnxQ2bdqUsleWGwh/BKVzHQDlhYB0zDgEVBH+oRncAAwe9i/+ HCEh/BE1rASIyCH8Q/VVAzAo/FODfo4QEP6IIj6NiBTC34wvh/255m8A4Y8ggsyzC20pYD8HAVQQ /kZUmvDH2X8ICH9EGZMAEQmEvxnc6mcO4Y8wqNzip3oboOcnU+Wew+L/TxOAWhD+Wp02yW/wz0rO /E+7E+BLpT+rtA08EP6IA+VPZ7lwL/6MtQBQK8I/VF81ASUT/gYb3CQM/lnp/4Yiwh9xwScU1hD+ RhRqGPYvvSOAZkAR4Y844VMKKwh/I2pd4W/wJYRKjQBKEP4wqdqTeVXxSYVxhL8ZX575p75c5Keo +P+XG/ovh9BXQPjDlEwmc8b8u0rbefG8CyDMexDhHsLfDGb7m0P4wwYdt+bziYUxhL8ZJcv7Dlbt +n256/5c7/dA+MMWHSfYLAUMIwh/M0rO/P2EOA2AT4Q/4o5PLkJH+JtRZdh/8HX/cg1/6XyASv8b XyL8YZuOSwDpIAepZTu4hfA3w+Oaf6V7/yv9vNL/hhD+sM8rb1Xz2LMBKO6s0g6r/RncRvib4RH+ BVGfyc/lQA+EP2wbnLeZTOa0s32/twQqNQCVdkjwoxLC3wyFM//B/4nH/622nfMIf0RJpWF+P5MD PT/Jpcv9lgt9bvfDYIS/GdzqZw7hjyRSHgHQ0W0g+Qh/Mwh/cwh/JJVyA1BtDgAgQvibQvibQ/gj bvxksu+VAItn/IVC4YwvekYD3EX4m0H4m0P4I6pKnwNQ66V5X5MAB+8wlUoR+BARwt8Uwt8cwh9R l0pVnp+rms1KIwAqO1PdDslC+JtB+JtD+MMVLAWMmhH+ZhD+5hD+iDo/1/i9TsqVP+WV5gKUeyYx ko/wN4PwN4fwh2uUVwIEigh/Mwh/cwh/uMjXXQCZTKbsGT+jAO4g/M0g/M0h/JE0qpkceCEguIPw N4PwN4fwh8t83QYIdxH+ZhD+5hD+cB2ffHgi/M0g/M0h/JFkqiP2vu4CKN1pPp8X7iJMNsLfDMLf HMIfcVbLbYCV5gR4XgKo9HzhXC53WvgzRyB5CH8zCH9zCH/gD5TmAHiFO+GfPIS/GYS/OYQ/cDpW AsQZCH8zCH9zCH/gTNwFgNMQ/mYQ/uYQ/kB5NS8FXA6XAuKN8DeD8DeH8EdSVctk1Sz2HAHI5XIs BewAwt8Mwt8cwh9J5ZXJqpnNJQAQ/oYQ/uYQ/kiq0uX5B5/tV7prrxLlfx0M7ycT4W8G4W8O4Q8X VMrkwc/s8cIIgMMIfzMIf3MIf0AdDYCjCH8zCH9zCH/AH+WVAJkImByEvxmEvzmEP/AFP1ntuRBQ LesOI7oIfzMIf3MIf7imdG3/cjmtksdcAnAI4W8G4W8O4Q9XpVKpin+mejLOUsCOIPzNIPzNIfyB YBgBcADhbwbhbw7hDwSnZSlgrv1HF+FvBuFvDuEPl+mcl6c0AqBr2UGYRfibQfibQ/gD+vi6C6Bc N+H157CD8DeD8DeH8Ae8FTM5lUpJOl39HF95DkC1ZQcRLYS/GYS/OYQ/oKaYySrz+5kEmDCEvxmE vzmEPxAOGoAEIfzNIPzNIfyB8Pi6C4Dh/ugi/M0g/M0h/IEz6Zx0r7QQkMoBaQ7sIfzNIPzNIfyB 8lQbAJVM5l9XzBH+ZhD+5hD+QO38nIz7Wgq41gcOIByEvxmEvzmEP2AOzwKIKcLfDMLfHMIf8Cfo SblyA1D6+MFKP0P4CH8zCH9zCH9Ana55eSwFHDOEvxmEvzmEP6BO9btfZTuWAo4Rwt8Mwt8cwh/w R2XkXXV0nqWAY4LwN4PwN4fwB+xiJcAYIPzNIPzNIfwB+2gAIo7wN4PwN4fwB6JBuQGoNNGPCYDh IfzNIPzNIfwBPXK53Bn5W+5n1bAUcEQR/mYQ/uYQ/oAelSbf+52UrzQC4LUjwl8vwt8Mwt8cwh/Q J5PJVJ2Yr5rJrAQYMYS/GYS/OYQ/EE38i4wQwt8Mwt8cwh8IR7VL8zWPAJQuIOBnQgGXAmpH+JtB +JtD+APhMLoUMMJF+JtB+JtD+APhGBz+qVTqtKCvNCGwEuYAWBbH8J84caL89re/lbPPPtt2KcoI f3MIfyA8Kg/m074UMPSLY/jX1dXJL3/5C8IfZRH+QHzQAFgSx/AXEbn//vtl5szLbZehjPA3h/AH 4kXLJQDV4QZ8Ia7hP3HiRFmzZo3U19fbLkUJ4W8O4Q+Y4XUJwM9iQIwAGBbX8BcRuffeewl/nIHw B8ypdodeKCsBQo84h399fb1ks1nbZSgh/M0h/IHoUR2N9/xXqzK8z9DXoGVRAAAXGElEQVS/tziH v4jI9TdcLyNGjLBdhifC3xzCH7CjNHNrzWDlf7l+hxbwB3EPfxGRWdfOsl2CJ8LfHMIfiL+a/vWW XnugIagsCeEvInLppZfYLqEqwt8cwh+wR+eke89/waUHqTbxgEbgdEkJfxGRyZOn2C6hIsLfHMIf SA7f/4preUaAi5IU/iIiTU2jbJdQFuFvDuEP2KfzRNvXOgA6nj7kgs7Oz2XOnLkyMDBguxRt3nnn HWloaLBdxmkIf3MIfyB5lO8CKIfQL+/JJ59KVPiLiHR1HY9UA0D4m0P4A8nkex2ATCbz1X8o74kn nrBdgnZ79+6zXcJXCH9zCH8gmnK5XMX/VPluAGo5iEu2b98uW7dutV2Gdtu2bbNdgogQ/iYR/kA0 eeWvaj57NgDVzvhpBs7U3tFuu4RQbHh9g+0SCH+DCH8gmkrX5Cn9r9x2lfgaARh8kFQqVbEoVw0M 9MuK5StslxGK59c9Lz09PdaOT/ibQ/gD0VfpMryfy/M1XwLQ8BDBxHn++Rfk6NGjtssIxcmTJ+Wp p56ycmzC3xzCH3CHZwPgNbkgnU4zKfBL7e3JHP4v+ud//mcZGOg3ekzC3xzCH3BLTU8DrHYpwFVH jx6VdevW2S4jVLt27ZLHHnvc2PEIf3MIfyBeKl12134XQKVJBviDlStXOjEP4uc//7ns2LEj9OMQ /uYQ/kB8VJvo5/ehfUoNgAvBFlRbW5vtEozo7e2VBx54QI4d6wztGIS/OYQ/ED9e4a56oq58CYBb /irbunWrbN++3XYZxuzcuVN++MM/DqUJ6OrqIvwNIfyB+Co3Iu93lL6mOQC1rjqUVDrO/i+5JNqP 2y21ZcsW+c53viu7du3Uts/du3fLPffcQ/gbQPgD8RdkFUARnwsBVeosXG4E+vv7ZNWqVYH38/Of /0z++q//SkNF5nz88ceyZMlSefzxxwP9/vP5vPzm//1G7rzzTvnggw80VohyCH8g3qplrp885nHA Aa1du046O4MNhV9xxRUyffrXZPr0r4mIyCOP/I2O0ozo6emRRx55RB5//HG57777ZMGCBTJ06FCl 1w4M9Muzz66RX/3qV05dQrGJ8AfirVz2ZjKZshMCvS4H8DjggP70T/9Unn/++UD7+Nuf/q1859vf +ep/P/74Y7FqAgZramqSm2++WWbPni0XX3yxnHPOFGloaBQRkZ6ek7J37z55//335bXXXpM1a9YE bp6gjvAH4q+Yw9UyV2UbEYUGgNCv7PDhw3L99ddLPp+veR/19fWyfv16GTly5Gk/j3MTUIpRI/sI fyAZdDYANV8CgMiKFSsChb+IyPz5888IfxGR733v+yISr8sBlRD8dhH+AMrx/Y3gd6GBJNOx9G9r a2vFP0tSEwA7CH8AlXh+K+hcdShJtmzZHHhFvObmZpk9e3bVbWgCUCvCH0iucsP8fkdbfX0zDD5Q Pp8/7YmAKjMOk6S9oyPwPpYuXSrptPdSDDQB8IvwB5KpdMZ/pdBXyeNAlwBcderUKXnyyScD7yeb zSpvSxMAVYQ/kGzlbvsr/XMVnt8QXoGfTqedeyLgc889J8c6jwXax1VXXSXTpk3z9RqaAHgh/AE3 6Bhxr+lbwqWh/nLCnvxXDU0AKiH8Afih9E3heuAPdujQQXn55ZcD7WPYsGFy220La349TQBKEf6A G/xchvfKbh4H7NPy5cHv/V+4cKEMHz4i0D6+973vx+7ZAQgH4Q+gFsrfGC7f8jeYjif/+Zn8Vw0j ASD8Abd45a+fE/aavjVKD+BKQ/DWW2/Jzp3BHn87adIkueaaazRVRBPgMsIfQCmvOwQG87UQkEj5 7kJ13eG40zL5765WpXv//aAJcA/hDyAo30mUyWQSH/Tl9Pb2ylNPPRV4Py1LWzRUcybmBLiD8Aeg g69vEJefDLhmzRrp7u4OtI9rrrlGpkyZoqmiMzESkHyEP+A2nZPyAy0ElPTQH0zH5L9a7/33gyYg uQh/AKpCWQrYpdAv2r9/v7z66quB9tHY2CgLFy7QVFF1NAHJQ/gD0I3HASvo6Og47cFHtVi4cKE0 NDRqqsgbTUByEP4AilRyN5fLKT2gj8cBeygUCtKh4cl/uu7994MmIP4IfwBh4XHAHt58c5N88skn gfYxZcoU+eY3v6mpIn9oAuKL8AcQJh4H7KFdw9l/a2ur1Scm0gTED+EPIGw8DriKnp6T8tSTwe79 T6VS0tISzr3/ftAExAfhD6ASo7cBlpPEof5ynnnmWTl58mSgfcyaNUsmTZqkqaJgaAKij/AHoIO2 2wBdCfxSWpb+NXDvvx80AdFF+APwojOPPZcCdjX89+7dKxs2bAi0jxEjRsj8+fM1VaQPywZHD+EP wDS9T6VJkPb29sD3/i9atEgaGho0VaQXTUB0EP4AbKABKCPO9/77QRNgH+EPwBYagDJef/112bNn T6B9nHvuufKNb3xDU0XhoQmwh/AHYBMNQBm6Jv/F5fZImgDzCH8AttEAlDhxoltWr14daB/pdFqW LFmiqSIzaALMIfwBRAENQInVq5+Rnp6eQPuYM2eOTJw4UVNF5tAEhI/wBxAVNAAl2traAu/jrrui de+/HzQB4SH8AUQJDcAgn376qbzxxhuB9tE0ukluvvkWTRXZQROgH+EPIGpoAAbRMflv0W2LpL6+ XkM1dtEE6EP4A4giGoAv5fN5WbFyReD9RG3p3yBoAoIj/AFEFQ3AlzZseE327tkbaB/Tp0+Xyy+/ XFNF0UATUDvCH0CU0QB86Ykngk/+S9LZ/2A0Af4R/gCijgZARLq7u2XNmjWB9pFOp2Xp0qWaKooe mgB1hD+AOKABEJGnn35aent7A+3j+uuvl/Hjx2uqKJpoArwR/gDiggZA9C396wKagMoIfwBx4nwD sGvXTnnzzTcD7aOpqUnmzZunqaLoowk4E+EPIG6cbwDa2oKf/S9evFiGDh2qoZr4oAn4A8IfQBw5 3QDkcjnp6OgIvJ+WlhYN1cQPTQDhDyC+nG4A1q9fL4cOHQq0jwsvvFAuu+wyTRXFj8tNAOEPIM6c bgD0TP7Laqgk3lxsAgh/AHGXKhQKBdtF2HD8+HGZM2eO9PX11byPTCYjL7/8sowbN05jZfH1+OOP ySOP/I3tMkJH+ANIAmdHAJ566qlA4S8ictO8mwj/QVwYCSD8ASSFsw1AW1vwpX+zjk7+qybJTQDh DyBJnGwAduzYIZs3bw60j9GjR8uNN96oqaJkSWITQPgDSBonGwAdZ/9LliyRIUPcuvffjyQ1AYQ/ gCRyrgHo7++T5cuXB96PK0v/BpGEJoDwB5BUzjUA69e/KkeOHAm0jxkzZsiMGTM0VZRscW4CCH8A SeZcA9DRwYN/TItjE0D4A0g6p9YB6Oz8XObMmSsDAwM176Ourk5eeeVlGTNmrMbK3BCXdQIIfwAu cGoE4MknnwoU/iIiN910E+FfoziMBBD+AFzhVAPQvpzhf9ui3AQQ/gBc4kwD8MEHH8i7m98NtI/x E8bLjTfeoKkid0WxCSD8AbjGmQZAx4N/7rzjTgJCkyg1AYQ/ABc50QAMDPTLihUrAu+H4X+9otAE EP4AXOVEA/DCCy8Gvvd/5syZcsEFF2iqCEU2mwDCH4DLnGgAdAz/Z7NZDZWgHBtNAOEPwHWJXwfg 6NGjct111wW+9//VV9dLU9NojZWhlKl1Agh/AHBgBGDVqlWB7/2/9db5hH/I3n77bdm2bbvU1YUb yoQ/AHwh8d+COp78N3LkKA2VoNTBgwdl+fLl0t7eLjt37gz9eIQ/APxBor8Jt27dKtu2bQu8n9/8 5jcy4ewJ8uB/fVBDVW47deqUPPfcc9LR0SEvvfSS5PN5I8cl/AHgdIn+NtQx+a/o0X98VESEJqBG 7767RX772yfk6d89Lcc6jxk9NuEPAGdK7CTA/v4+mTv3Ouns7NS63wd/9CBNgKLDhw/LihUrpKOj Qz788EMrNRD+AFBeYr8V165dpz38RRgJ8NLf3ydr166TtrY2efHFF40N8ZdD+ANAZYn9ZtQx+a8S moAzvffee9Le3i6rVq0KpfHyi/AHgOoS+e342WefyYsvvhjqMWgCvlhjYeXKldLW1ibbt2+3Xc5X CH8A8JbIb8iVq1YaGXp2sQkYGOiX559/XtrbO2TdunWSy+Vsl3Qawh8A1CTyW7LtifCG/0u50gRs 375d2jvaZcXyFXL06FHb5ZRF+AOAusR9U7777hbjM86T2gR0dn4uK1eukvb2dtm6davtcqoi/AHA n8R9W7a16bv334+kNAG53IC8+OJL0tbWJmvXrg28jLIJhD8A+JeodQD6+vpkzpw5cvz4cWs1xHWd gB07dkhbW5usXLVSDh86bLscJSNGjJC7v323/PmPf0z4A4BPifrWfO6556yGv0i8RgKOHeuUJ598 Strb22XLli22y1GSSqVk9uzZ0traKvPnz5dhw4bZLgkAYilRDYDOpX+DiHITkMvl5JVXXpH29nb5 /e9/L319fbZLUjJt2jRZunSpZLNZaW5utl0OAMReYhqAQ4cOyksvvWS7jK9ErQn4+OOPpGP5culo 75BDhw7ZLkdJY2Oj3H7H7ZJtaZErr7xKUqmU7ZIAIDES0wAsX77C6rKz5dhuArq6uuTp3z0tHe0d 8uabb1qpwa9UKiXXXnutZLNZWbDgVmloaLRdEgAkUmIagKgM/5cy3QTk83l57bXX5IknnpA1a9bI qVOnjBw3qMmTJ0s2m5VsNiuTJ0+2XQ4AJF4iGoC3335bPv74Y9tlVGSiCdi1a5d0dHTI8uXLZf/+ /aEdR6eGhgZZuHChZLNZueaaaxjiBwCDEtEAhPngH13CaAJOnOiW3/1utbS1tcmmTZu07TdsV199 tWSzWbnttoUyfPgI2+UAgJNivw5Ab2+vzJ07V7q6umyXoiToOgH5fF5e3/i6tLe3y+rfrZbe3l6N 1YWnublZWlpaJJvNytSpU22XAwDOi/0IwJo1a2IT/iK1jwTs2bNHOpZ3SHtbu+zduzeM0rQbNmyY zJ8/X1pbW2XWrFmSTqdtlwQA+FLsG4A4DP+XUm0CenpOyurVz0hbW5u8/vrrJkrT4sorr5RsNiuL Fi2SESMY4geAKIp1A7B//3559dVXbZdRk0f/8VEpFAryowd/dNrPC4WCbNy48Ysh/tWr5eTJk5Yq 9GfChAlfDvG3yHnnTbddDgDAQ6wbgBUrV0icpzD84tFfSD6Xl4ceekj27dsnHR0d0tbWJnv27LFd mpKhQ4fKLbfcItlsVubOnSuZTMZ2SQAARbGdBFgoFOTWW2+VTz75xHYpgU2ePFn27dsXm2Zm5syZ ctddd8ntt98uo0aNsl0OAKAGsR0BeOuttxIR/iISi0l9Z511lixZskRaW1vl/PPPt10OACCg2DYA cZz8Fzd1dXUyb948aW1tlRtuuJ5H7gJAgsTyEkBPT4/Mnj07NhPk4uaSSy6Ru+66S+6443YZPXqM 7XIAACGI5Snds88+S/hrNm7cOFm8ZLFkW7Jy0UUX2S4HABCyWDYADP/rkclk5KabbpLW1la58cYb pK5uiO2SAACGxK4B2Lt3r2zYsMF2GbF20UUXSWtrqyxevFjGjh1ruxwAgAWxawA6Ojpic7tclIwe PVruvPNOyWazcumll9ouBwBgWawagEKhIO3t7bbLiI10Oi033HCDtLa2yrx5N8mQIUNtlwQAiIhY NQDvvPNObFbJs+mCCy6QlpYWWbJkiYwfP952OQCACIpVA7B27VrbJURW0+gmWXTbIrn77rvksstm 2i4HABBxsWoANm7caLuESEmn03LddddJNpuVm2++Werr622XBACIiVg1ANu3b7ddQiRMnDhRvv3t b8vdd98tZ599tu1yAAAxFJsG4Pjx49Ld3W27DGtGjhwpixYtktbWVrniiitslwMAiLnYNABdXV22 SzAulUrJ7NmzpbW1VebPny/Dhg2zXRIAICFi0wC4ZNq0adLS0iItLS3S3NxsuxwAQALFpgFI+nPn Gxsb5fY7bpdsS4tceeVVkkqlbJcEAEiw2DQAI0eOlKbRTXKs85jtUrRJpVJy7bXXSjablQULbpWG hkbbJQEAHBGbBkBE5OIZF8trr71mu4zAJk+eLNlsVrLZrEyePNl2OQAAB8WqAZgzd05sG4CGhgZZ uHChZLNZueaaaxjiBwBYlSrE6Mk6u3btkltvvdV2Gb5cffXVks1m5bbbFsrw4SNslwMAgIjEbATg 3HPPlTlz5sj69ettl1JVc3OzLF26VFpbW2Xq1Km2ywEA4AyxGgEQEXnzzTflu9/9ru0yzjBs2DCZ P3++tLa2yqxZsySdTtsuCQCAimLXAIiI/OQnP5GOjg7bZYiIyJVXXikt2RZZdNsiGTlypO1yAABQ EssG4Pjx47J06VJrjwaeMGGCtLS0SDbbIuedN91KDQAABBHLBkBEZMeOHXLPPffIsWNm1gUYOnSo 3HLLLZLNZmXu3LmSyWSMHBcAgDDEtgEQEXnvvffkj/7oj6SzszO0Y8ycOVOy2azccccd0tTUFNpx AAAwKdYNgIjI7t275YEHHpBt27Zp2+f4CeNl8Z2LpbW1Vc4//3xt+wUAICpi3wCIiPT19cmyZcvk X//1X6Wvr6+mfdTV1cm8efOktbVVbrjheslkYnWHJAAAviSiASg6ePCg/Pu//7u0t7crXxaYOXOm LFmyRBYvvlNGjx4TcoUAAERDohqAolxuQN54Y5O88cYbsmPHDjlw4ID09PRIJpORsWPHytSpU2Xm zJkya9YsmThxou1yAQAwLpENAAAAqI7l6gAAcBANAAAADqIBAADAQTQAAAA4iAYAAAAH0QAAAOAg GgAAABxEAwAAgINoAAAAcBANAAAADqIBAADAQTQAAAA4iAYAAAAH0QAAAOAgGgAAABxEAwAAgINo AAAAcBANAAAADqIBAADAQTQAAAA4iAYAAAAH0QAAAOAgGgAAABxEAwAAgINoAAAAcFCd7QIA23K5 nIiIZDIZy5UkS/F9FeG9BaKIEQAAAByUKhQKBdtFAAAAsxgBAADAQcwBQE0qXd9V+flgJl9b6Tp0 pTkA5Y7rtY9q2w4+juq+vbbz8/eu9D5WOrbf45duU+299/N+pVIpKR2oLFdvPp8/Y7tK2/r53ZYT 5PdXbluV303QmoFSjACgJkG+eGy91o9KX8ilP8/lcsrbev28ltd7vR+q71e5YwWt38+xqv28XKiX +z1UuppZbls/x1fdTvU4fo5V3Das3wXcxggAjIpD4+B1Vp3L5cruT+e2tdRQ/JlXKFQ6+wx6fJX3 WOd7W47XmXWtxw/yepX3u9L2fkdRAD8YAYA2fs6AovLaalS/yFW2Vf0zvzWU/kz3rXe1hLzu/Xpd nlD5fZduE/Tv5eezEWS/QJgYAUBgpWcypWehXkOhNl5bK9Nf0Kp/B69r7n5eW8vx/TJ19upnbkNY xyq3HWfviAJGAFCzIGdNtl4LmMRnD1HGCAC0yOfzZX+ucqZj67VxoBogYS3nEVaA2Q5Gk5NJbf9d gUoYAYAWxQAqftn5+dKz9dpaVJuRHYZKDY7XdkHmUCRJ8fdV+ndUfV9rOZbKdkAU0AAgkHS69o+Q rdeq8ppcqDpbPIhKt8BVmuugOlteVaXbA4MGqM79qjR9pduovK/VBPlsAFHBJQAEkkqllLYr94Vo +rWqk+QGT9LSveCLKq8aqh3La5KZSq1ex6/1kkNY+y1SuQVS9X0t/rmf98XEZwPQhREAaBPk1ipb r1XdZ7VjqW6rs4Zqq8MN5rd58Hv8WoSx30wmU7EpVP18qB7fz2fD7z4Ak3gYEOCIcme0ANzFCAAA AA6iAQAAwEE0AAAAOIg5AAAAOIgRAAAAHEQDAACAg/4/74y178wdthoAAAAASUVORK5CYII= "
       height="512"
       width="512" />
    <g
       id="g989"
       transform="translate(3.5762787e-7,0.14527893)">
      <circle
         r="1.5512223"
         cy="1037.6072"
         cx="8.999999"
         id="path2226"
         style="fill:#000000;fill-opacity:1;fill-rule:nonzero;stroke:#000000;stroke-width:0.39755547;stroke-linecap:round;stroke-linejoin:miter;stroke-miterlimit:4;stroke-dasharray:none;stroke-dashoffset:0;stroke-opacity:1" />
      <circle
         r="1.5512223"
         cy="1043.2169"
         cx="8.999999"
         id="path2226-3"
         style="fill:#000000;fill-opacity:1;fill-rule:nonzero;stroke:#000000;stroke-width:0.39755547;stroke-linecap:round;stroke-linejoin:miter;stroke-miterlimit:4;stroke-dasharray:none;stroke-dashoffset:0;stroke-opacity:1" />
      <circle
         r="1.5512223"
         cy="1048.8267"
         cx="8.999999"
         id="path2226-6"
         style="fill:#000000;fill-opacity:1;fill-rule:nonzero;stroke:#000000;stroke-width:0.39755547;stroke-linecap:round;stroke-linejoin:miter;stroke-miterlimit:4;stroke-dasharray:none;stroke-dashoffset:0;stroke-opacity:1" />
    </g>
  </g>
</svg>
